abeille	abeilles
abeilles	abeilles
acariens	acariens
acariens et typhlodromes	acariens
acariens jaunes	acariens
acariens ravageurs	acariens
acariens rouges	acariens
acariose	acariose
bda	black dead arm
black dead arm	black dead arm
black-dead-arm	black dead arm
black - rot	black-rot
black rot	black-rot
black-rot	black-rot
black-rot (guignardia bidwellii)	black-rot
guignardia bidwellii	black-rot
botrytis	botrytis
botrytis (botrytis cinerea)	botrytis
botrytis •	botrytis
botrytis cinerea	botrytis
autres champignons	champignons
chlorose	chloroses
chrysopes	chrysopes
cicadelle blanche	cicadelle blanche
metcalfa pruinosa	cicadelle blanche
cicadelle verte	cicadelle verte
cicadelle verte (empoasca vitis)	cicadelle verte
cicadelles	cicadelle verte
cicadelles des grillures	cicadelle verte
cicadelles vertes	cicadelle verte
empoasca vitis	cicadelle verte
cigarier	cigariers
cigariers	cigariers
coccinelle	coccinelles
coccinelles	coccinelles
cochenille	cochenilles
cochenilles	cochenilles
cochenilles lecanines	cochenilles
cochenilles lécanines (parthenolecanium corni)	cochenilles
parthenolecanium corni	cochenilles
cochylis	cochylis
lobesia botrana	cochylis
eudemis	cochylis 
eudémis	cochylis 
eulia	cochylis 
tordeuses	vers de la grappe 
tordeuses de la grappe	vers de la grappe 
vers de la grappe	vers de la grappe 
drosophila suzukii	drosophila suzukii
drosophile	drosophila suzukii
drosophiles	drosophila suzukii
colomerus vitis	erinose
erinose	erinose
erinose (colomerus vitis)	erinose
esca	esca
escargots	escargot
excoriose	excoriose
excoriose (phomopsis viticola)	excoriose
phomopsis viticola	excoriose
cicadelle de la flavescence dorée	flavescence dorée
cicadelle de la flavescence dorée (scaphoideus	flavescence dorée
cicadelle de la flavescence dorée (scaphoideus titanus)	flavescence dorée
cicadelles de la flavescence	flavescence dorée
cicadelles vectrices de la flavescence dorée	flavescence dorée
flavescence 	flavescence dorée
flavescence doree	flavescence dorée
flavescence dorée	flavescence dorée
scaphoideus titanus	flavescence dorée
galles phylloxériques	galles phylloxériques
autres insectes	insectes
insectes	insectes
bourgeons	les mange bourgeons
les mange bourgeons	les mange bourgeons
mange bourgeons	les mange bourgeons
maladies du bois	maladies du bois
méligèthe	méligèthes
mélighètes	méligèthes
mildiou	mildiou
mildiou (plasmopara viticola)	mildiou
mildiou erratum	mildiou
plasmopara viticola	mildiou
oïdium	oïdium
oidium	oïdium
oïdium	oïdium
oïdium (uncinula necator)	oïdium
uncinula necator	oïdium
pyrale	pyrales
pyrales	pyrales
autres ravageurs	ravageurs
ravageurs secondaires	ravageurs
ravageurs secondaires et auxiliaires	ravageurs
thrips	thrips